<?xml version="1.0" encoding="utf-8"?>
<!-- Generator: Adobe Illustrator 19.1.0, SVG Export Plug-In . SVG Version: 6.00 Build 0)  -->
<svg version="1.1" id="Layer_1" xmlns="http://www.w3.org/2000/svg" xmlns:xlink="http://www.w3.org/1999/xlink" x="0px" y="0px"
	 viewBox="-255 347 100 100" style="enable-background:new -255 347 100 100;" xml:space="preserve">
<style type="text/css">
	.st0{fill:#343332;}
</style>
<g>
	<g>
		<path class="st0" d="M-169.6,361.6c-9-9.1-21.5-14.6-35.4-14.6c-13.8,0-26.3,5.6-35.4,14.6c-9.1,9.1-14.6,21.5-14.6,35.4
			s5.6,26.3,14.6,35.4c9.1,9.1,21.6,14.6,35.4,14.6c13.8,0,26.3-5.6,35.4-14.6c9.1-9.1,14.6-21.5,14.6-35.4
			S-160.6,370.7-169.6,361.6z M-172.4,429.6c-8.4,8.3-19.9,13.5-32.6,13.5c-12.7,0-24.3-5.1-32.6-13.5c-8.3-8.4-13.5-19.9-13.5-32.6
			c0-12.7,5.2-24.3,13.5-32.6c8.3-8.3,19.9-13.5,32.6-13.5c12.7,0,24.3,5.2,32.6,13.5c8.3,8.3,13.5,19.9,13.5,32.6
			C-158.9,409.7-164.1,421.3-172.4,429.6z M-205,380.8c-8.9,0-16.2,7.3-16.2,16.2c0,8.9,7.3,16.2,16.2,16.2
			c8.9,0,16.2-7.2,16.2-16.2C-188.8,388.1-196.1,380.8-205,380.8z M-205,409.8c-7.1,0-12.8-5.7-12.8-12.8c0-7.1,5.7-12.8,12.8-12.8
			c7.1,0,12.8,5.8,12.8,12.8C-192.2,404.1-197.9,409.8-205,409.8z M-189.1,378.6c-1.4,0-2.6,1.2-2.6,2.6c0,1.4,1.2,2.6,2.6,2.6
			s2.6-1.2,2.6-2.6C-186.5,379.8-187.7,378.6-189.1,378.6z M-191.8,371.9h-26.4c-6.5,0-11.8,5.3-11.8,11.8v26.4
			c0,6.5,5.3,11.8,11.8,11.8h26.4c6.5,0,11.8-5.3,11.8-11.8v-26.4C-179.9,377.3-185.2,371.9-191.8,371.9z M-182.9,410.2
			c0,4.9-4,8.9-8.9,8.9h-26.4c-4.9,0-8.9-4-8.9-8.9v-26.4c0-4.9,4-8.9,8.9-8.9h26.4c4.9,0,8.9,4,8.9,8.9V410.2z"/>
	</g>
</g>
</svg>
